{
    "faq-bundle": {
        "general": {
            "mainMenuItemGeneral": "FAQ",
            "descriptionTextModule": "Sie werden FAQs auflisten, hinzufügen, aktualisieren und löschen."
        },
        "list": {
            "addButtonText": "FAQ hinzufügen",
            "columnName": "FAQ Fragen"
        },
        "detail": {
            "nameLabel": "Frage",
            "answersLabel": "Antworten",
            "categoryLabel": "Kategorie wählen",
            "cancelButtonText": "Abbrechen",
            "saveButtonText": "Speichern",
            "errorTitle": "Fehler beim Speichern des FAQ"
        }
    }
}